…
    ## date created (size, mb): 2022-09-28 15:06:15 (1.699)

    ## file min/max dates: 1965-01-01 / 2020-03-31

    ## using cached file: ~/Library/Caches/R/noaa_ghcnd/USS0023B17S.dly

    ## date created (size, mb): 2022-09-28 15:06:17 (0.95)

    ## file min/max dates: 1999-09-01 / 2022-09-30

``` r
weather_df
```

    ## # A tibble: 1,095 × 6
    ##    name           id          date        prcp  tmax  tmin
    ##    <chr>          <chr>       <date>     <dbl> <dbl> <dbl>
    ##  1 CentralPark_NY USW00094728 2017-01-01     0   8.9   4.4
    ##  2 CentralPark_NY USW00094728 2017-01-02    53   5     2.8
    ##  3 CentralPark_NY USW00094728 2017-01-03   147   6.1   3.9
    ##  4 CentralPark_NY USW00094728 2017-01-04     0  11.1   1.1
    ##  5 CentralPark_NY USW00094728 2017-01-05     0   1.1  -2.7
    ##  6 CentralPark_NY USW00094728 2017-01-06    13   0.6  -3.8
    ##  7 CentralPark_NY USW00094728 2017-01-07    81  -3.2  -6.6
    ##  8 CentralPark_NY USW00094728 2017-01-08     0  -3.8  -8.8
    ##  9 CentralPark_NY USW00094728 2017-01-09     0  -4.9  -9.9
    ## 10 CentralPark_NY USW00094728 2017-01-10     0   7.8  -6  
    ## # … with 1,085 more rows
…
    ## using cached file: ~/Library/Caches/R/noaa_ghcnd/USS0023B17S.dly

    ## date created (size, mb): 2022-09-28 15:06:17 (0.95)

    ## file min/max dates: 1999-09-01 / 2022-09-30

## `group_by`

``` r
weather_df %>% 
  group_by(name)
```

    ## # A tibble: 1,095 × 7
    ## # Groups:   name [3]
    ##    name           id          date        prcp  tmax  tmin month     
    ##    <chr>          <chr>       <date>     <dbl> <dbl> <dbl> <date>    
    ##  1 CentralPark_NY USW00094728 2017-01-01     0   8.9   4.4 2017-01-01
    ##  2 CentralPark_NY USW00094728 2017-01-02    53   5     2.8 2017-01-01
    ##  3 CentralPark_NY USW00094728 2017-01-03   147   6.1   3.9 2017-01-01
    ##  4 CentralPark_NY USW00094728 2017-01-04     0  11.1   1.1 2017-01-01
    ##  5 CentralPark_NY USW00094728 2017-01-05     0   1.1  -2.7 2017-01-01
    ##  6 CentralPark_NY USW00094728 2017-01-06    13   0.6  -3.8 2017-01-01
    ##  7 CentralPark_NY USW00094728 2017-01-07    81  -3.2  -6.6 2017-01-01
    ##  8 CentralPark_NY USW00094728 2017-01-08     0  -3.8  -8.8 2017-01-01
    ##  9 CentralPark_NY USW00094728 2017-01-09     0  -4.9  -9.9 2017-01-01
    ## 10 CentralPark_NY USW00094728 2017-01-10     0   7.8  -6   2017-01-01
    ## # … with 1,085 more rows

\##count things count month/name observations

``` r
weather_df %>% 
  group_by(name,month) %>% 
  summarise(n_obs = n())
```

    ## `summarise()` has grouped output by 'name'. You can override using the
    ## `.groups` argument.

    ## # A tibble: 36 × 3
    ## # Groups:   name [3]
    ##    name           month      n_obs
    ##    <chr>          <date>     <int>
    ##  1 CentralPark_NY 2017-01-01    31
    ##  2 CentralPark_NY 2017-02-01    28
    ##  3 CentralPark_NY 2017-03-01    31
    ##  4 CentralPark_NY 2017-04-01    30
    ##  5 CentralPark_NY 2017-05-01    31
    ##  6 CentralPark_NY 2017-06-01    30
    ##  7 CentralPark_NY 2017-07-01    31
    ##  8 CentralPark_NY 2017-08-01    31
    ##  9 CentralPark_NY 2017-09-01    30
    ## 10 CentralPark_NY 2017-10-01    31
    ## # … with 26 more rows

we can use ‘count’

``` r
weather_df %>% 
  ##count(name) 直接count计数
  count(name,month,name = "n_obs")
```

    ## # A tibble: 36 × 3
    ##    name           month      n_obs
    ##    <chr>          <date>     <int>
    ##  1 CentralPark_NY 2017-01-01    31
    ##  2 CentralPark_NY 2017-02-01    28
    ##  3 CentralPark_NY 2017-03-01    31
    ##  4 CentralPark_NY 2017-04-01    30
    ##  5 CentralPark_NY 2017-05-01    31
    ##  6 CentralPark_NY 2017-06-01    30
    ##  7 CentralPark_NY 2017-07-01    31
    ##  8 CentralPark_NY 2017-08-01    31
    ##  9 CentralPark_NY 2017-09-01    30
    ## 10 CentralPark_NY 2017-10-01    31
    ## # … with 26 more rows
…
## general summaries

If you want to summarize multiple columns using the same summary, the
across function is helpful.

``` r
weather_df %>%
  group_by(name, month) %>%
  summarize(across(tmin:prcp, mean))
```

    ## `summarise()` has grouped output by 'name'. You can override using the
    ## `.groups` argument.

    ## # A tibble: 36 × 5
    ## # Groups:   name [3]
    ##    name           month        tmin  tmax  prcp
    ##    <chr>          <date>      <dbl> <dbl> <dbl>
    ##  1 CentralPark_NY 2017-01-01  0.748  5.98  39.5
    ##  2 CentralPark_NY 2017-02-01  1.45   9.28  22.5
    ##  3 CentralPark_NY 2017-03-01 -0.177  8.22  43.0
    ##  4 CentralPark_NY 2017-04-01  9.66  18.3   32.5
    ##  5 CentralPark_NY 2017-05-01 12.2   20.1   52.3
    ##  6 CentralPark_NY 2017-06-01 18.2   26.3   40.4
    ##  7 CentralPark_NY 2017-07-01 21.0   28.7   34.3
    ##  8 CentralPark_NY 2017-08-01 19.5   27.2   27.4
    ##  9 CentralPark_NY 2017-09-01 17.4   25.4   17.0
    ## 10 CentralPark_NY 2017-10-01 13.9   21.8   34.3
    ## # … with 26 more rows
…
